Assignment_1
…
Question 2: Creating a new variable called ‘CombatEffectiveness’

# This is the code I used for to sum the columns of speed, agility, strength
# and willpower into a new variable called 'CombatEffectiveness.' While doing 
# this I will also only include complete, clean cases and not count incomplete
# responses. Directly below it I will print the results to make sure the code 
# worked correctly.

avengers <- avengers %>%
  mutate(CombatEffectiveness = rowSums(across(c(speed, agility, strength, willpower)), na.rm = TRUE))

print(avengers)

# A tibble: 814 × 16
      iq agility speed strength damage.resistance superpower flexibility
   <dbl>   <dbl> <dbl>    <dbl>             <dbl> <chr>            <dbl>
 1   118      27  5.05      400              2.1  no                -1.9
 2   109      54  4.98      782              2.09 no                -2.2
 3    90      56  4.84      569              1.99 no                -1  
 4   114      63  5.24      535              2.19 no                -0.3
 5   116      30  5.01      663              2.33 no                -2.6
 6   137      62  4.79      435              2.05 no                -0.9
 7   114      57  4.96      418              2    no                -1.5
 8   102      63  5.39      630              2.05 no                -0.6
 9    98      70  5.14      480              1.71 no                -0.2
10    99      52  5.05      663              2    no                -1.2
# ℹ 804 more rows
# ℹ 9 more variables: willpower <dbl>, ptsd <dbl>, north_south <chr>,
#   died <chr>, kills <dbl>, injuries <dbl>, minutes.fighting <dbl>,
#   shots.taken <dbl>, CombatEffectiveness <dbl>
…
